{
    "firstname" : "John",
    "lastname" : "Doh",
    "email" : "jo",        
    "password" : "123456",
    "password_confirmation" : "123456",
    "device_id" : "123",
    "device_type" : "ios9.3",
    "app_version" : "2.0.1"
}