{
  "api_call": "device/restrict_app",
  "command_uuid": "6df2f075-ec05-4935-851b-2165c1ad0459",
  "epoch_response": "1452096034.287",
  "response_type": "false",
  "response_message": "400: bad request. Invalid token eid:ack-0002 ack ... index"
}