{
  "teen_services": [
    {
      "id": 895,
      "teen_id": 1529,
      "service_id": 5,
      "teenservice_id": 4732,
      "device_id": 3,
      "confirmation_code": "4297",
      "confirmation_code_count": null,
      "confirmation_flag": 1,
      "countrycode": "+1",
      "areacode": "626",
      "phonenumber": "2570604",
      "deleted_by": 0,
      "is_deleted": 0,
      "deleted_at": null,
      "created_at": "2016-03-01 16:53:39",
      "modified_at": "2016-03-01 16:53:39",
      "delete_request": "0000-00-00 00:00:00"
    }
  ]
}